'Nodes','Unambiguous synapomorphies (character no.: character state)'
'Node 11','3,G'
'Node 12','2,T','5,T'
'Node 13','3,C'
'Node 14','6,A'
'Node 9','1,T'
'T8','5,A'
'','Exclusive character states (character no.: character state)'
'Node 10','0,T'
'Node 11','3,G','4,G'
'Node 12','2,T'
'Node 13','3,C'
'Node 9','1,T'
'T1','0,A','7,A'
'T2','4,C'
'','Exclusive synapomorphies (character no.: character state)'
'Node 11','3,G'
'Node 12','2,T'
'Node 13','3,C'
'Node 9','1,T'
'','Private synapomorphies (character no.: character state)'
'Node 12','5,T'
'','Non-private synapomorphies (character no.: character state)'
'Node 14','6,A'
'T8','5,A'
